me/cupysa/encryption/Endpoints.class
me/cupysa/custom/DateFormatted.class
me/cupysa/MainApplicationClass.class
me/cupysa/entities/MUsuarios.class
me/cupysa/controller/CupysaRestController.class
me/cupysa/encryption/EncryptionAlgorithm.class
me/cupysa/repositories/MUsuariosRepository.class
me/cupysa/databaseConfig/tblMUsuarios.class
me/cupysa/encryption/EncryptionWrapper.class
me/cupysa/databaseConfig/DatabaseConfigurarion.class
